runQC • remora
…
The QC list variable contains the QC’d detections data and metadata for each individual deployment. The utility function grabQC() provides a simple method to extract manageable segments of the QC output for subsequent review and analysis. For example, we can grab only the basic detection data with the QC flags and then filter the detections to retain only those flagged as ‘valid’ or ‘likely valid’:

dQC <- grabQC(tag_qc, what = "dQC", flag = c("valid","likely valid"))
dQC

## # A tibble: 597 × 22
##    transmitter_id   tag_id transmitter_deplo… tagging_project_… species_common_…
##    <chr>             <int>              <int> <chr>             <chr>           
##  1 A69-9002-13807 69918686           69918684 Townsville Reefs  Bull Shark      
##  2 A69-9002-13807 69918686           69918684 Townsville Reefs  Bull Shark      
##  3 A69-9002-13807 69918686           69918684 Townsville Reefs  Bull Shark      
##  4 A69-9002-13807 69918686           69918684 Townsville Reefs  Bull Shark      
##  5 A69-9002-13807 69918686           69918684 Townsville Reefs  Bull Shark      
##  6 A69-9002-13807 69918686           69918684 Townsville Reefs  Bull Shark      
##  7 A69-9002-13807 69918686           69918684 Townsville Reefs  Bull Shark      
##  8 A69-9002-13807 69918686           69918684 Townsville Reefs  Bull Shark      
##  9 A69-9002-13807 69918686           69918684 Townsville Reefs  Bull Shark      
## 10 A69-9002-13807 69918686           69918684 Townsville Reefs  Bull Shark      
## # … with 587 more rows, and 17 more variables: species_scientific_name <chr>,
## #   detection_datetime <dttm>, receiver_deployment_longitude <dbl>,
## #   receiver_deployment_latitude <dbl>, transmitter_sensor_raw_value <dbl>,
## #   installation_name <chr>, station_name <chr>, receiver_name <chr>,
## #   receiver_deployment_id <dbl>, FDA_QC <dbl>, Velocity_QC <dbl>,
## #   Distance_QC <dbl>, DetectionDistribution_QC <dbl>,
## #   DistanceRelease_QC <dbl>, ReleaseDate_QC <dbl>, ReleaseLocation_QC <dbl>, …

or, to return all detection regardless of QC flag:

dQC <- grabQC(tag_qc, what = "dQC")
dQC

## # A tibble: 597 × 22
##    transmitter_id   tag_id transmitter_deplo… tagging_project_… species_common_…
##    <chr>             <int>              <int> <chr>             <chr>           
##  1 A69-9002-13807 69918686           69918684 Townsville Reefs  Bull Shark      
##  2 A69-9002-13807 69918686           69918684 Townsville Reefs  Bull Shark      
##  3 A69-9002-13807 69918686           69918684 Townsville Reefs  Bull Shark      
##  4 A69-9002-13807 69918686           69918684 Townsville Reefs  Bull Shark      
##  5 A69-9002-13807 69918686           69918684 Townsville Reefs  Bull Shark      
##  6 A69-9002-13807 69918686           69918684 Townsville Reefs  Bull Shark      
##  7 A69-9002-13807 69918686           69918684 Townsville Reefs  Bull Shark      
##  8 A69-9002-13807 69918686           69918684 Townsville Reefs  Bull Shark      
##  9 A69-9002-13807 69918686           69918684 Townsville Reefs  Bull Shark      
## 10 A69-9002-13807 69918686           69918684 Townsville Reefs  Bull Shark      
## # … with 587 more rows, and 17 more variables: species_scientific_name <chr>,
## #   detection_datetime <dttm>, receiver_deployment_longitude <dbl>,
## #   receiver_deployment_latitude <dbl>, transmitter_sensor_raw_value <dbl>,
## #   installation_name <chr>, station_name <chr>, receiver_name <chr>,
## #   receiver_deployment_id <dbl>, FDA_QC <dbl>, Velocity_QC <dbl>,
## #   Distance_QC <dbl>, DetectionDistribution_QC <dbl>,
## #   DistanceRelease_QC <dbl>, ReleaseDate_QC <dbl>, ReleaseLocation_QC <dbl>, …
…
tag_meta <- grabQC(tag_qc, what = "tag_meta")
rec_meta <- grabQC(tag_qc, what = "rec_meta")
meas <- grabQC(tag_qc, what = "meas")

If a user wishes to work with a simple data.frame containing all the QC output then the nested tibble can be converted using tidyr::unnest() and dplyr::ungroup() as follows:

require(tidyverse)
qc <- tag_qc %>%
  unnest(cols = QC) %>%
  ungroup()

qc

## # A tibble: 597 × 55
##    filename         transmitter_id  tag_id transmitter_deploy… tagging_project_…
##    <chr>            <chr>            <int>               <int> <chr>            
##  1 A69-9002-13807_… A69-9002-13807  6.99e7            69918684 Townsville Reefs 
##  2 A69-9002-13807_… A69-9002-13807  6.99e7            69918684 Townsville Reefs 
##  3 A69-9002-13807_… A69-9002-13807  6.99e7            69918684 Townsville Reefs 
##  4 A69-9002-13807_… A69-9002-13807  6.99e7            69918684 Townsville Reefs 
##  5 A69-9002-13807_… A69-9002-13807  6.99e7            69918684 Townsville Reefs 
##  6 A69-9002-13807_… A69-9002-13807  6.99e7            69918684 Townsville Reefs 
##  7 A69-9002-13807_… A69-9002-13807  6.99e7            69918684 Townsville Reefs 
##  8 A69-9002-13807_… A69-9002-13807  6.99e7            69918684 Townsville Reefs 
##  9 A69-9002-13807_… A69-9002-13807  6.99e7            69918684 Townsville Reefs 
## 10 A69-9002-13807_… A69-9002-13807  6.99e7            69918684 Townsville Reefs 
## # … with 587 more rows, and 50 more variables: species_common_name <chr>,
## #   species_scientific_name <chr>, CAAB_species_id <int>,
## #   WORMS_species_aphia_id <int>, animal_sex <chr>, detection_datetime <dttm>,
## #   receiver_deployment_longitude <dbl>, receiver_deployment_latitude <dbl>,
## #   receiver_project_name <chr>, installation_name <chr>, station_name <chr>,
## #   receiver_name <chr>, receiver_id <int>, receiver_deployment_id <dbl>,
## #   receiver_depth <dbl>, purchasing_organisation <chr>, …
…
