extractEnv • remora
…
When downloading current data, three variables are downloaded:
Gridded Sea Level Anomaly (rs_gsla), surface geostrophic
velocity in the north-south direction (rs_vcur) and the
east-west direction (rs_ucur). These variables are used to
calculate current velocity and bearing and appended to detections

Examining the appended environmental data

We can now see the extracted environmental variables are appended as
new columns to the input dataset

data_with_sst_and_current

## # A tibble: 597 × 61
##    filename    transmitter_id tag_id transmitter_deployme…¹ tagging_project_name
##    <chr>       <chr>           <int>                  <int> <chr>               
##  1 A69-9002-1… A69-9002-13807 6.99e7               69918684 Townsville Reefs    
##  2 A69-9002-1… A69-9002-13807 6.99e7               69918684 Townsville Reefs    
##  3 A69-9002-1… A69-9002-13807 6.99e7               69918684 Townsville Reefs    
##  4 A69-9002-1… A69-9002-13807 6.99e7               69918684 Townsville Reefs    
##  5 A69-9002-1… A69-9002-13807 6.99e7               69918684 Townsville Reefs    
##  6 A69-9002-1… A69-9002-13807 6.99e7               69918684 Townsville Reefs    
##  7 A69-9002-1… A69-9002-13807 6.99e7               69918684 Townsville Reefs    
##  8 A69-9002-1… A69-9002-13807 6.99e7               69918684 Townsville Reefs    
##  9 A69-9002-1… A69-9002-13807 6.99e7               69918684 Townsville Reefs    
## 10 A69-9002-1… A69-9002-13807 6.99e7               69918684 Townsville Reefs    
## # ℹ 587 more rows
## # ℹ abbreviated name: ¹​transmitter_deployment_id
## # ℹ 56 more variables: species_common_name <chr>,
## #   species_scientific_name <chr>, CAAB_species_id <int>,
## #   WORMS_species_aphia_id <int>, animal_sex <chr>, detection_datetime <dttm>,
## #   receiver_deployment_longitude <dbl>, receiver_deployment_latitude <dbl>,
## #   receiver_project_name <chr>, installation_name <chr>, station_name <chr>, …
…
